…
------------------------------------------------------------------------

## 

<div class="columns">

<div class="column" width="50%">

Before pivoting

``` r
teen_births %>% print(width=58)
```

    # A tibble: 52 × 8
    # Groups:   State [52]
       State  `2013` `2014` `2015` `2016` `2017` `2018` `2019`
       <chr>   <dbl>  <dbl>  <dbl>  <dbl>  <dbl>  <dbl>  <dbl>
     1 Alaba…  10784  10018   9478   8960   8482   7848   7910
     2 Alaska   1416   1290   1324   1166    972    846    786
     3 Arizo…  14464  13244  11820  10714  10050   9300   8636
     4 Arkan…   8310   7564   7354   6744   6356   5856   5764
     5 Calif…  61010  54050  48350  42824  37870  33858  30712
     6 Color…   7668   6754   6540   6136   5580   5044   4942
     7 Conne…   3212   2840   2482   2272   2106   1976   1804
     8 Delaw…   1456   1232   1080   1166   1104    994    888
     9 Distr…   1274   1130   1002    920    816    746    646
    10 Flori…  27924  25632  23914  22390  21416  19658  19082
    # … with 42 more rows
…
</div>

<div class="column" width="50%">

After pivoting longer

``` r
teen_births %>% 
  pivot_longer(cols = `2013`:`2019`,
               names_to = "year", 
               values_to = "births")
```

    # A tibble: 364 × 3
    # Groups:   State [52]
       State   year  births
       <chr>   <chr>  <dbl>
     1 Alabama 2013   10784
     2 Alabama 2014   10018
     3 Alabama 2015    9478
     4 Alabama 2016    8960
     5 Alabama 2017    8482
     6 Alabama 2018    7848
     7 Alabama 2019    7910
     8 Alaska  2013    1416
     9 Alaska  2014    1290
    10 Alaska  2015    1324
    # … with 354 more rows
…
Run `predict()` on a data frame of your explanatory values. Then bind
the predicted column back with the original data frame and plot the
predictions with their own `geom_line()`.

``` r
baseline_df <- polyps %>%
  select(baseline)

predicted_df <- predict(polyps_model, new_data = baseline_df) %>% 
  rename(predicted_12m = ".pred") %>% 
  mutate(predicted_12m = round(predicted_12m, 1))
predicted_df
```

    # A tibble: 22 × 1
       predicted_12m
               <dbl>
     1          19.9
     2          27.7
     3          19.9
     4          19.7
     5          21.7
     6          23.1
     7          20.4
     8          20.5
     9          19.9
    10          54.6
    # … with 12 more rows
…
