…
## Selecting variables (columns) with `dplyr::select()`

- We often only want a small number of the data frame’s variables when
  investigating or visualizing a question
- `select(df, ...)` returns `df` with only the columns listed in `...`,
  one column or column-expression per argument

``` r
polyps %>% 
  select(participant_id:baseline, age)
```

    # A tibble: 22 × 4
       participant_id sex      age baseline
       <chr>          <chr>  <dbl>    <dbl>
     1 001            female    17        7
     2 002            female    20       77
     3 003            male      16        7
     4 004            female    18        5
     5 005            male      22       23
     6 006            female    13       35
     7 007            female    23       11
     8 008            male      34       12
     9 009            male      50        7
    10 010            male      19      318
    # … with 12 more rows
…
## `select()` example

``` r
# select cols participant_id thru treatment except age, and col. no. 7

polyps %>% 
  select(participant_id:treatment, -age, 7)
```

    # A tibble: 22 × 5
       participant_id sex    baseline treatment number12m
       <chr>          <chr>     <dbl> <chr>         <dbl>
     1 001            female        7 sulindac         NA
     2 002            female       77 placebo          63
     3 003            male          7 sulindac          2
     4 004            female        5 placebo          28
     5 005            male         23 sulindac         17
     6 006            female       35 placebo          61
     7 007            female       11 sulindac          1
     8 008            male         12 placebo           7
     9 009            male          7 placebo          15
    10 010            male        318 placebo          44
    # … with 12 more rows
…
## Sorting df rows with `dplyr::arrange()`

- Often we want to sort our data frame by values in one or more columns,
  e.g., alphabetically by name, or (more realistically) by treatment
  group and by outcome variable
- `arrange(df, ...)` returns `df` with the rows reordered according to
  arguments (which are variable names)

``` r
polyps %>% 
  arrange(baseline) %>% print(n=7)
```

    # A tibble: 22 × 7
      participant_id sex      age baseline treatment number3m number12m
      <chr>          <chr>  <dbl>    <dbl> <chr>        <dbl>     <dbl>
    1 004            female    18        5 placebo          5        28
    2 001            female    17        7 sulindac         6        NA
    3 003            male      16        7 sulindac         4         2
    4 009            male      50        7 placebo          7        15
    5 012            female    23        8 sulindac         1         3
    6 020            female    23       10 sulindac         6         3
    7 007            female    23       11 sulindac         6         1
    # … with 15 more rows
…
## `arrange()` example

``` r
polyps %>% 
  arrange(treatment, sex, desc(age))
```

    # A tibble: 22 × 7
       participant_id sex      age baseline treatment number3m number12m
       <chr>          <chr>  <dbl>    <dbl> <chr>        <dbl>     <dbl>
     1 017            female    22       54 placebo         45        46
     2 002            female    20       77 placebo         67        63
     3 004            female    18        5 placebo          5        28
     4 006            female    13       35 placebo         31        61
     5 009            male      50        7 placebo          7        15
     6 008            male      34       12 placebo         20         7
     7 019            male      34       30 placebo         30        50
     8 014            male      30       11 placebo         20        10
     9 015            male      27       24 placebo         26        40
    10 013            male      22       20 placebo         16        28
    # … with 12 more rows
…
## Grouping data frame rows with `dplyr::group_by()`

- We often want to identify and examine subgroups within the data using
  categorical variables.
- `group_by(df, variable)` returns a data frame with each row grouped
  according to its value for `variable`; this grouped df is then used
  with other dplyr functions (especially `summarize()`)

``` r
polyps %>% 
  group_by(treatment) %>% print(n=7)
```

    # A tibble: 22 × 7
    # Groups:   treatment [2]
      participant_id sex      age baseline treatment number3m number12m
      <chr>          <chr>  <dbl>    <dbl> <chr>        <dbl>     <dbl>
    1 001            female    17        7 sulindac         6        NA
    2 002            female    20       77 placebo         67        63
    3 003            male      16        7 sulindac         4         2
    4 004            female    18        5 placebo          5        28
    5 005            male      22       23 sulindac        16        17
    6 006            female    13       35 placebo         31        61
    7 007            female    23       11 sulindac         6         1
    # … with 15 more rows
…
